{
    "models" : {
        "canam51_p1": {
            "source_id" : "CanESM5-1",
            "variant_id" : "i1p1f1",
            "short_name": "canam51_p1",
            "inherits_from": "basemodel",
            "description" : "Canadian Atmospheric Model version 5-1",
            "Scientifically_validated" : "True",
            "repository_tag": "v5.1.6",
            "components": {
                "CanAM": {
                    "exec" : "canam.exe",
                    "config" : "CanAM51_T63L48",
                    "config_dir" : "atm/CanAM51_T63L48",
                    "resources" : {
                        "mpiprocs" : 32,
                        "ompthreads" : 2
                    },
                    "namelists" : {
                        "modl.dat": {},
                        "canam_settings": {}
                    },
                    "cpp_defs" : {
                        "mkmf.template" :{}
                    },
                    "input_files" : {
                        "AGCMRS_IN":"mc_${runid}_${chunk_restart_YYYY}_m${chunk_restart_MM}_agcmrs",
                        "ALBTABLE":"nasa_albedo_lookup_table_v3", 
                        "CHEM":"ipemi_cl_128_64_duemi_orilai_l10_suz0",
                        "CTEM_AN_FILE":"ctem_an_file_for_cmip6_sep_2017_129_64",
                        "EMCO2S":"zero_emissions",
                        "EM_CO2":"zero_emissions",
                        "LAKES":"gcm3.5_128x64_v5_lake_parameters_v2",
                        "LNDCVR18502100":"uva_cmip6_luh_v2h_land_cover_1850_2014_linear_128_64_aug_2017_1850",
                        "GHG_SCENARIO":"mole_fraction_in_air_input4mips_ghgconcentrations_cmip_uom-cmip-1-2-0_gr1-gmnhsh_0000-2014_v1",
                        "HISTOZ_RAD":"cmip6_radozone_picontrol_1850_monthly_128_64",
                        "OXI":"iphoxlp_cmam-961v_128x64_19plev",
                        "SNOWRTLUT":"snow_rt_lut2",
                        "SOLVAR":"solarforcing-ref-mon_input4mips_solar_cmip_solaris-heppa-3-2_gn_18500101-22991231_anom_v1",
                        "SPFILT":"hoskfilt_r_12_n61_t63_tst",
                        "TARGET":"uva_river_parameters_128_64_may_2017_cmip6_with_caspian_inland_lakes_t63_to_orca1_fland_caspian",
                        "TRANS":"historical_slcf_em_input4mips_1850_1869_clim_v3",
                        "TROPC":"trop_clim_ms_z_t63_monthly",
                        "VTAU":"cmip_canesm_strat_aerosol_radiation_1850_control_v3_v4"
                    }, 
                    "directory_packing":{
                        "OUTGCM": "OUTGCM[0-9][0-9][0-9][0-9][0-1][0-9]_[0-9][0-9]",
                        "OUTINV": "OUTINV[0-9][0-9][0-9][0-9][0-1][0-9]_[0-9][0-9]",
                        "OUT3HR": "OUT3HR[0-9][0-9][0-9][0-9][0-1][0-9]_[0-9][0-9]",
                        "OUTEND": "OUTEND[0-9][0-9][0-9][0-9][0-1][0-9]_[0-9][0-9]",
                        "OUTCTM": "OUTCTM[0-9][0-9][0-9][0-9][0-1][0-9]_[0-9][0-9]",
                        "AGCMRS": "agcmrs_OLDRS agcmrs_OLDTS agcmrs_${CanAM_EXEC} agcmrs_agcm.final.state agcmrs_modl.dat agcmrs_canam_settings"
                    },
                    "output_files" : {
                        "OUTGCM" : "${model}gcm",
                        "OUTINV" : "${model}inv",
                        "OUT3HR" : "${model}3hr",
                        "OUTCTM" : "${model}ctm",
                        "AGCMRS" : "${model_rs}agcmrs",
                        "TRACERS_INFO" : "${model_rs}tracers_info"
                    }             
                },
                "CanCPL": {
                    "exec" : "cancpl.exe",
                    "config" : "CanCPL51_T63_ORCA1",
                    "config_dir" : "cpl/CanCPL51_T63_ORCA1",
                    "resources" : {
                        "mpiprocs" : 1,
                        "ompthreads" : 1
                    },
                    "namelists" : {
                        "nl_coupler_par":{
                            "main_coupler_par" : {
                                "landfrac_bug": ".false.",
                                "windstress_remap": "bilinear"
                            }
                        }
                    },     
                    "cpp_defs" : {
                    },
                    "input_files" : {"CPLRS_IN":"mc_${runid}_${chunk_restart_YYYY}_m${chunk_restart_MM}_cplrs"},
                    "directory_packing":{
                        "CPLRS" : "cplrs_cpl_restart.nc cplrs_nl_coupler_par cplrs_atm_grid.nc cplrs_ocn_grid.nc cplrs_${CanCPL_EXEC}"
                    },
                    "output_files" : {"CPLRS" : "${model_rs}cplrs"} 
                }
            }
        }
    }   
}