{
    "models" : {
        "canesm51_p1": {
            "source_id" : "CanESM5-1",
            "variant_id" : "i1p1f1",
            "short_name": "canesm51_p1",
            "inherits_from": ["basemodel", "canam51_p1", "cannemo51_p1"],
            "description" : "Canadian Earth System Model version 5-1",
            "Scientifically_validated" : "True",
            "repository_tag": "v5.1.6",
            "components": {
            }
        }
    }   
}