{
    "models" : {
        "cannemo51_p1": {
            "source_id" : "CanESM5-1",
            "variant_id" : "i1p1f1",
            "short_name": "cannemo51_p1",
            "inherits_from": "basemodel",
            "description" : "CanNEMO Ocean Model version 5-1",
            "Scientifically_validated" : "True",
            "repository_tag": "v5.1.6",
            "components": {
                "CanNEMO":{
                    "exec" : "nemo.exe",
                    "config" : "CCC_CANCPL_ORCA1_LIM_CMOC",
                    "config_dir" : "ocn/CCC_CANCPL_ORCA1_LIM_CMOC/EXP00",
                    "resources" : {
                        "mpiprocs" : 160,
                        "ompthreads" : 1
                    },
                    "namelists" : {
                        "namelist":{"namrun" : {
                                        "cn_exp": "{{runid}}",
                                        "cn_ocerst_in" : "restart",
                                        "cn_ocerst_out" : "restart",
                                        "ln_clobber" : ".true."
                                    },
                                    "namdom": {
                                        "nn_closea" : "1",
                                        "nn_msh" : "1"
                                    },
                                    "namsbc": {"ln_rnf" : ".true."},
                                    "namsbc_cpl" :{"sn_snd_co2": "'none' , 'no' , '' , '' , ''",
                                                   "sn_rcv_co2": "'none' , 'no' , '' , '' , ''" 
                                    },
                                    "nammpp" :{
                                        "jpni" : "16",
                                        "jpnj" : "10",
                                        "jpnij" : "160"
                                    },
                                    "namctl": {"ln_ctl" : ".true."},
                                    "namptr":{
                                        "ln_diaptr" : ".true.",
                                        "ln_diaznl" : ".false.",
                                        "nn_fwri" : "24"
                                    }
                                }, 
                        "namelist_ice":{
                            "namicerun" : {
                                "cn_icerst_in" : "restart_ice",
                                "cn_icerst_out" : "restart_ice"
                            }
                        }, 
                        "namelist_cmoc":{}, 
                        "namelist_pisces":{}, 
                        "namelist_top":{
                            "namtrc": {
                                "ln_rsttr" : ".true.",
                                "cn_trcrst_in" : "restart_trc",
                                "cn_trcrst_out" : "restart_trc"
                            }
                        }, 
                        "xmlio_server.def" :{},
                        "iodef.xml": {}
                    },
                    "cpp_defs" : {
                        "../cpp_CCC_CANCPL_ORCA1_LIM_CMOC.fcm" :{}
                    },
                    "input_files" : {
                        "NEMORS_IN":"mc_${runid}_${chunk_restart_YYYY}_m${chunk_restart_MM}_nemors na",
                        "NEMORS_IN_tiled":"mc_${runid}_${chunk_restart_YYYY}_m${chunk_restart_MM}_tiled_nemors na",
                        "ahmcoef":"nemo_3.4_orca1_ahmcoef", 
                        "bathy_meter.nc":"nemo_3.4_orca1_bathy_meter_050308_ukmo_mod.nc",
                        "bathy.orca.nc":"uncs_orca1_bathy.orca.nc",
                        "chlorophyll.nc":"nemo_3.4_orca1_chlorophyll-orca1_1m.nc",
                        "coordinates.nc":"nemo_3.4_orca1_coordinates_ukorca1.nc",
                        "dust.orca.nc":"uncs_orca1_dust.orca.nc",
                        "Eddyengf.nc":"nemo_3.4_orca1_eddy_mix.nc",
                        "fermask.orca.nc":"nemo_3.4_orca1_femask.orca.nc",
                        "K1rowdrg.nc":"nemo_3.4_orca1_k1rowdrg_r1_modif.nc",
                        "M2rowdrg.nc":"nemo_3.4_orca1_m2rowdrg_r1_modif.nc",
                        "mask_itf.nc":"nemo_3.4_orca1_mask_itf_orca1_new.nc",
                        "ndeposition.orca.nc":"uncs_orca1_ndeposition.orca.nc",
                        "runoff_core_monthly.nc":"nemo_3.4_orca1_rout_socoeff_month_r1i1p1_1979-2005-mean.nc",
                        "subbasins.nc":"nemo_3.4_orca1_basinmask_050308_ukmo_modified.nc",
                        "data_si_nomask.nc":  "uncs_orca1_data_si_nomask.nc",
                        "presatm.nc" : "uncs_orca1_presatm.nc",
                        "data_1m_salinity_nomask.nc":"omip6_orca1_data_salt_nomask.nc"
                    },       
                    "directory_packing":{
                        "1m_grid_T" : "${runid}_1m_*[0-9]_*[0-9]*_grid_T_[0-9][0-9][0-9][0-9].nc",
                        "1m_grid_U" : "${runid}_1m_*[0-9]_*[0-9]*_grid_U_[0-9][0-9][0-9][0-9].nc",
                        "1m_grid_V" : "${runid}_1m_*[0-9]_*[0-9]*_grid_V_[0-9][0-9][0-9][0-9].nc",
                        "1m_grid_W" : "${runid}_1m_*[0-9]_*[0-9]*_grid_W_[0-9][0-9][0-9][0-9].nc",
                        "1m_ptrc_T" : "${runid}_1m_*[0-9]_*[0-9]*_ptrc_T_[0-9][0-9][0-9][0-9].nc",
                        "1m_diad_T" : "${runid}_1m_*[0-9]_*[0-9]*_diad_T_[0-9][0-9][0-9][0-9].nc",
                        "1m_icemod" : "${runid}_1m_*[0-9]_*[0-9]_icemod_[0-9][0-9][0-9][0-9].nc",
                        "1m_grid_T_ar6" : "${runid}_1m_*[0-9]_*[0-9]_grid_T_ar6_[0-9][0-9][0-9][0-9].nc",
                        "1m_grid_U_ar6" : "${runid}_1m_*[0-9]_*[0-9]_grid_U_ar6_[0-9][0-9][0-9][0-9].nc",
                        "1m_grid_V_ar6" : "${runid}_1m_*[0-9]_*[0-9]_grid_V_ar6_[0-9][0-9][0-9][0-9].nc",
                        "1m_grid_W_ar6" : "${runid}_1m_*[0-9]_*[0-9]_grid_W_ar6_[0-9][0-9][0-9][0-9].nc",
                        "1d_grid_T_ar6" : "${runid}_1d_*[0-9]_*[0-9]_grid_T_ar6_[0-9][0-9][0-9][0-9].nc",
                        "1d_grid_U_ar6" : "${runid}_1d_*[0-9]_*[0-9]_grid_U_ar6_[0-9][0-9][0-9][0-9].nc",
                        "1d_grid_V_ar6" : "${runid}_1d_*[0-9]_*[0-9]_grid_V_ar6_[0-9][0-9][0-9][0-9].nc",
                        "1y_grid_T_ar6" : "${runid}_1y_*[0-9]_*[0-9]_grid_T_ar6_[0-9][0-9][0-9][0-9].nc",
                        "3h_grid_T_ar6" : "${runid}_3h_*[0-9]_*[0-9]_grid_T_ar6_[0-9][0-9][0-9][0-9].nc",
                        "1d_icemod" : "${runid}_1d_*[0-9]_*[0-9]_icemod_[0-9][0-9][0-9][0-9].nc",
                        "1d_diaptr" : "${runid}_1d_*[0-9]_*[0-9]_diaptr_[0-9][0-9][0-9][0-9].nc",
                        "mesh_mask" : "mesh_mask_[0-9][0-9][0-9][0-9].nc",
                        "tiled_nemors" : "${runid}_*[0]${nemo_end_step}_restart_[0-9][0-9][0-9][0-9].nc ${runid}_*[0]${nemo_end_step}_restart_ice_[0-9][0-9][0-9][0-9].nc ${runid}_*[0]${nemo_end_step}_restart_trc_[0-9][0-9][0-9][0-9].nc rs_ocean.output rs_namelist* rs_timing.output rs_final.state rs_${CanNEMO_EXEC} rs_time.step"
                    },       
                    "output_files" : {
                        "1m_grid_T" : "${model}1m_grid_t",
                        "1m_grid_U" : "${model}1m_grid_u",
                        "1m_grid_V" : "${model}1m_grid_v",
                        "1m_grid_W" : "${model}1m_grid_w",
                        "1m_ptrc_T" : "${model}1m_ptrc_t",
                        "1m_diad_T" : "${model}1m_diad_t",
                        "1m_icemod" : "${model}1m_icemod",
                        "1m_grid_T_ar6" : "${model}1m_grid_t_ar6",
                        "1m_grid_U_ar6" : "${model}1m_grid_u_ar6",
                        "1m_grid_V_ar6" : "${model}1m_grid_v_ar6",
                        "1m_grid_W_ar6" : "${model}1m_grid_w_ar6",
                        "1d_grid_T_ar6" : "${model}1d_grid_t_ar6",
                        "1d_grid_U_ar6" : "${model}1d_grid_u_ar6",
                        "1d_grid_V_ar6" : "${model}1d_grid_v_ar6",
                        "1y_grid_T_ar6" : "${model}1y_grid_t_ar6",
                        "3h_grid_T_ar6" : "${model}3h_grid_t_ar6",
                        "1d_icemod" : "${model}1d_icemod",
                        "1d_diaptr" : "${model}1d_diaptr",
                        "mesh_mask" : "${model}mesh_mask",
                        "${runid}_1m_*[0-9]_*[0-9]_scalar_ar6.nc": "${model}scalar_ar6.nc",
                        "tiled_nemors" : "${model_rs}tiled_nemors"
                    }
                }
            }
        }
    }   
}