{
    "experiments" : {
        "cmip6-1pctCO2":{
            "experiment_id": "1pctCO2",
            "inherits_from": "cmip6-piControl",
            "start_time": "1850",
            "end_time":"1919",
            "components": {
                "CanAM": {
                    "namelists" : {
                        "canam_settings": {
                            "phys_options" : {
                                "co2_1ppy" : ".true."
                            }
                        }              
                    }
                }    
            }
        }
    }
}