{
    "experiments" : {
        "cmip6-historical":{
            "experiment_id": "historical",
            "inherits_from": "cmip6-piControl",
            "start_time": "1850",
            "end_time":"2014",
            "components": {
                "CanAM": {
                    "namelists" : {
                        "canam_settings": {
                            "CTEM_PARAMS" : {
                                "lndcvrmod" : "12345"
                            },
                            "phys_options" : {
                                "with_solvar" : ".true."
                            },
                            "em_scenario_cfgs" : {
                                "em_aerosol_scn_mode" : -1,
                                "conc_ozone_scn_mode" : -1,
                                "em_co2_scn_mode" : -185001,   
                                "ghg_co2_scn_mode" : -1,
                                "ghg_ch4_scn_mode" : -1,
                                "ghg_n2o_scn_mode" : -1,
                                "ghg_f11_scn_mode" : -1,
                                "ghg_f12_scn_mode" : -1,
                                "ghg_f113_scn_mode" : 0,
                                "ghg_f114_scn_mode" : 0,
                                "vtau_scn_mode" : -1
                            }
                        }
                    },
                    "input_files" : {
                        "GHG_SCENARIO" : "mole_fraction_in_air_input4mips_ghgconcentrations_cmip_uom-cmip-1-2-0_gr1-gmnhsh_0000-2014_v1",
                        "HISTOZ_RAD" : "cmip6_radozone_histo_picontrol_1850_2014_monthly_128_64_${year}",
                        "LNDCVR18502100":"uva_cmip6_luh_v2h_land_cover_1850_2014_linear_128_64_aug_2017_${year}",
                        "SOLVAR":"solarforcing-ref-mon_input4mips_solar_cmip_solaris-heppa-3-2_gn_18500101-22991231_anom_v1_v2",
                        "TRANS":"historical_slcf_em_input4mips_1850_2014_v3_${year}",
                        "VTAU":"cmip_canesm_strat_aerosol_radiation_185001-201412_v3_v4_${year}"
                    }              
                },
                "CanCPL": {},
                "CanDIAG":{},
                "CCCma_tools":{},
                "CanNEMO":{}
            }
        }
    }
}