{
    "sequencing": {
        "sequencers" : {
            "iss" : {
                "supported_machines": ["robert", "underhill", "ppp5", "ppp6", "hpcr-vis", "niagara"],
                "sequencer_dir" : "{{work_dir}}/sequencer",
                "baseflows" : {
                    "ESM" :{
                        "canesm_two_job_flow" : {
                            "model_run_script": "imsi_run_canesm.sh",
                            "diagnostic_run_script": "imsi_diag_canesm.sh"
                        }
                    }
                }
            }
        }
    }
}