{
    "sequencing": {
        "sequencers" : {
            "comment" : "Information to be used in setup/config maestro (along with others)",
            "maestro" :{
                "supported_machines": ["robert", "underhill", "ppp5", "ppp6", "hpcr-vis"],
                "SEQ_EXP_HOME" : "{{work_dir}}/sequencer",
                "baseflows" : {
                    "ESM":{
                        "canesm_split_job_flow" : {
                            "maestro_defaults_src" : "{{source_path}}/CCCma_tools/maestro-suite/default-imsi",
                            "flow_definitions" : {
                                "canesm" : "{{source_path}}/CCCma_tools/maestro-suite/default-imsi/defaults/flow_definitions/canesm_flow.xml",
                                "model" : "{{source_path}}/CCCma_tools/maestro-suite/default-imsi/defaults/flow_definitions/model_flow.xml",
                                "postproc" : "{{source_path}}/CCCma_tools/maestro-suite/default-imsi/defaults/flow_definitions/esm_postproc_flow.xml"
                             }
                        }
                    },
                    "AMIP": {
                        "canam_split_job_flow": {
                            "maestro_defaults_src" : "{{source_path}}/CCCma_tools/maestro-suite/default-imsi",
                            "flow_definitions"  : {
                                "canesm" : "{{source_path}}/CCCma_tools/maestro-suite/default-imsi/defaults/flow_definitions/canesm_flow.xml",
                                "model" : "{{source_path}}/CCCma_tools/maestro-suite/default-imsi/defaults/flow_definitions/model_flow.xml",
                                "postproc" : "{{source_path}}/CCCma_tools/maestro-suite/default-imsi/defaults/flow_definitions/amip_postproc_flow.xml"
                            }
                        }
                    },
                    "OMIP": {
                        "cannemo_split_job_flow": {
                            "maestro_defaults_src" : "CCCma_tools/maestro-suite/default-imsi",
                            "flow_definitions"  : {
                                "canesm" : "CCCma_tools/maestro-suite/default-imsi/defaults/flow_definitions/canesm_flow.xml",
                                "model" : "CCCma_tools/maestro-suite/default-imsi/defaults/flow_definitions/model_flow.xml",
                                "postproc" : "CCCma_tools/maestro-suite/default-imsi/defaults/flow_definitions/omip_postproc_flow.xml"
                            }
                        }
                    }
                }

            }
        }
    }
}
